TB/waves_Top_Module.vcd
$date
	Mon Feb  9 01:55:08 2026
$end
$version
	Icarus Verilog
$end
$timescale
	1ps
$end
$scope module tb_Top_Module $end
$var reg 1 ! clk $end
$var reg 1 " rst $end
$scope module DUT $end
$var wire 1 ! clk $end
$var wire 32 # if_in_branch_addr [31:0] $end
$var wire 32 $ if_in_jalr_addr [31:0] $end
$var wire 2 % if_in_pcsrc [1:0] $end
$var wire 1 " rst $end
$var wire 1 & wb_regwrite $end
$var wire 5 ' wb_rd [4:0] $end
$var wire 32 ( wb_in_pc4 [31:0] $end
$var wire 2 ) wb_in_memtoreg [1:0] $end
$var wire 32 * wb_in_mem_output [31:0] $end
$var wire 32 + wb_in_imm [31:0] $end
$var wire 32 , wb_in_alu_output [31:0] $end
$var wire 32 - wb_data [31:0] $end
$var wire 32 . mem_out_data [31:0] $end
$var wire 1 / mem_in_regwrite $end
$var wire 32 0 mem_in_rdata2 [31:0] $end
$var wire 5 1 mem_in_rd [4:0] $end
$var wire 32 2 mem_in_pc4 [31:0] $end
$var wire 1 3 mem_in_memwrite $end
$var wire 2 4 mem_in_memtoreg [1:0] $end
$var wire 32 5 mem_in_imm [31:0] $end
$var wire 32 6 mem_in_alu_output [31:0] $end
$var wire 32 7 if_out_pc4 [31:0] $end
$var wire 32 8 if_out_pc [31:0] $end
$var wire 32 9 if_out_instr [31:0] $end
$var wire 1 : id_out_regwrite $end
$var wire 32 ; id_out_rdata2 [31:0] $end
$var wire 32 < id_out_rdata1 [31:0] $end
$var wire 5 = id_out_rd [4:0] $end
$var wire 1 > id_out_memwrite $end
$var wire 2 ? id_out_memtoreg [1:0] $end
$var wire 32 @ id_out_imm [31:0] $end
$var wire 2 A id_out_branch_flag [1:0] $end
$var wire 1 B id_out_b_sel $end
$var wire 2 C id_out_alu_op [1:0] $end
$var wire 1 D id_out_a_sel $end
$var wire 32 E id_in_pc4 [31:0] $end
$var wire 32 F id_in_pc [31:0] $end
$var wire 32 G id_in_instr [31:0] $end
$var wire 2 H ex_out_pcsrc [1:0] $end
$var wire 32 I ex_out_branch_output [31:0] $end
$var wire 32 J ex_out_alu_output [31:0] $end
$var wire 1 K ex_in_regwrite $end
$var wire 32 L ex_in_rdata2 [31:0] $end
$var wire 32 M ex_in_rdata1 [31:0] $end
$var wire 5 N ex_in_rd [4:0] $end
$var wire 32 O ex_in_pc4 [31:0] $end
$var wire 32 P ex_in_pc [31:0] $end
$var wire 1 Q ex_in_memwrite $end
$var wire 2 R ex_in_memtoreg [1:0] $end
$var wire 32 S ex_in_imm [31:0] $end
$var wire 7 T ex_in_funct7 [6:0] $end
$var wire 3 U ex_in_funct3 [2:0] $end
$var wire 2 V ex_in_branch_flag [1:0] $end
$var wire 1 W ex_in_b_sel $end
$var wire 2 X ex_in_alu_op [1:0] $end
$var wire 1 Y ex_in_a_sel $end
$scope module ex_inst $end
$var wire 32 Z rdata2 [31:0] $end
$var wire 32 [ rdata1 [31:0] $end
$var wire 2 \ pcsrc [1:0] $end
$var wire 2 ] pc_op [1:0] $end
$var wire 32 ^ pc [31:0] $end
$var wire 32 _ imm [31:0] $end
$var wire 7 ` funct7 [6:0] $end
$var wire 3 a funct3 [2:0] $end
$var wire 32 b branch_output [31:0] $end
$var wire 1 W b_sel $end
$var wire 4 c alu_src [3:0] $end
$var wire 32 d alu_output [31:0] $end
$var wire 2 e alu_op [1:0] $end
$var wire 32 f alu_b_input [31:0] $end
$var wire 32 g alu_a_input [31:0] $end
$var wire 1 Y a_sel $end
$var wire 1 h BrLtU $end
$var wire 1 i BrLt $end
$var wire 1 j BrEq $end
$scope module a_inst $end
$var wire 1 Y sel $end
$var wire 32 k out [31:0] $end
$var wire 32 l b [31:0] $end
$var wire 32 m a [31:0] $end
$upscope $end
$scope module alu_ctrl_inst $end
$var wire 7 n funct7 [6:0] $end
$var wire 3 o funct3 [2:0] $end
$var wire 2 p alu_op [1:0] $end
$var reg 4 q alu_src [3:0] $end
$upscope $end
$scope module alu_inst $end
$var wire 1 i BrLt $end
$var wire 32 r a [31:0] $end
$var wire 4 s alu_src [3:0] $end
$var wire 1 t overflow $end
$var wire 32 u sa [31:0] $end
$var wire 32 v sb [31:0] $end
$var wire 5 w shamt [4:0] $end
$var wire 32 x b [31:0] $end
$var wire 1 h BrLtU $end
$var wire 1 j BrEq $end
$var parameter 4 y ADD $end
$var parameter 4 z AND $end
$var parameter 4 { OR $end
$var parameter 4 | SLL $end
$var parameter 4 } SLT $end
$var parameter 4 ~ SLTU $end
$var parameter 4 !" SRA $end
$var parameter 4 "" SRL $end
$var parameter 4 #" SUB $end
$var parameter 4 $" XOR $end
$var reg 32 %" result [31:0] $end
$upscope $end
$scope module b_inst $end
$var wire 1 W sel $end
$var wire 32 &" out [31:0] $end
$var wire 32 '" b [31:0] $end
$var wire 32 (" a [31:0] $end
$upscope $end
$scope module branch_adder_inst $end
$var wire 32 )" c [31:0] $end
$var wire 32 *" b [31:0] $end
$var wire 32 +" a [31:0] $end
$upscope $end
$scope module branch_inst $end
$var wire 1 j BrEq $end
$var wire 1 i BrLt $end
$var wire 1 h BrLtU $end
$var wire 2 ," pc_op [1:0] $end
$var wire 3 -" funct3 [2:0] $end
$var reg 2 ." pcsrc [1:0] $end
$upscope $end
$upscope $end
$scope module id_inst $end
$var wire 1 ! clk $end
$var wire 1 " rst $end
$var wire 32 /" wb_wd [31:0] $end
$var wire 1 & wb_regwrite $end
$var wire 5 0" wb_rd [4:0] $end
$var wire 3 1" immsrc [2:0] $end
$var wire 32 2" if_instr [31:0] $end
$var wire 1 : id_regwrite $end
$var wire 32 3" id_rdata2 [31:0] $end
$var wire 32 4" id_rdata1 [31:0] $end
$var wire 5 5" id_rd [4:0] $end
$var wire 2 6" id_pc_op [1:0] $end
$var wire 1 > id_memwrite $end
$var wire 2 7" id_memtoreg [1:0] $end
$var wire 32 8" id_imm [31:0] $end
$var wire 4 9" id_funct3 [3:0] $end
$var wire 1 B id_b_sel $end
$var wire 2 :" id_alu_op [1:0] $end
$var wire 1 D id_a_sel $end
$scope module ctrl_inst $end
$var wire 7 ;" opcode [6:0] $end
$var reg 1 D a_sel $end
$var reg 2 <" alu_op [1:0] $end
$var reg 1 B b_sel $end
$var reg 3 =" immsrc [2:0] $end
$var reg 2 >" memtoreg [1:0] $end
$var reg 1 > memwrite $end
$var reg 2 ?" pc_op [1:0] $end
$var reg 1 : regwrite $end
$upscope $end
$scope module immgen_inst $end
$var wire 3 @" immsrc [2:0] $end
$var wire 25 A" instr [31:7] $end
$var wire 32 B" imm_u [31:0] $end
$var wire 32 C" imm_s [31:0] $end
$var wire 32 D" imm_j [31:0] $end
$var wire 32 E" imm_i [31:0] $end
$var wire 32 F" imm_b [31:0] $end
$var reg 32 G" imm [31:0] $end
$upscope $end
$scope module reg_inst $end
$var wire 1 ! clk $end
$var wire 5 H" rs1 [4:0] $end
$var wire 5 I" rs2 [4:0] $end
$var wire 1 " rst $end
$var wire 32 J" wd [31:0] $end
$var wire 1 & regwrite $end
$var wire 32 K" rdata2 [31:0] $end
$var wire 32 L" rdata1 [31:0] $end
$var wire 5 M" rd [4:0] $end
$upscope $end
$upscope $end
$scope module if_inst $end
$var wire 32 N" branch_addr [31:0] $end
$var wire 1 ! clk $end
$var wire 32 O" jalr_addr [31:0] $end
$var wire 2 P" pcsrc [1:0] $end
$var wire 1 " rst $end
$var wire 32 Q" pc_next [31:0] $end
$var wire 32 R" pc4 [31:0] $end
$var wire 32 S" pc [31:0] $end
$var wire 32 T" instr [31:0] $end
$scope module im_inst $end
$var wire 32 U" instr [31:0] $end
$var wire 32 V" addr [31:0] $end
$upscope $end
$scope module pc4_inst $end
$var wire 32 W" b [31:0] $end
$var wire 32 X" c [31:0] $end
$var wire 32 Y" a [31:0] $end
$upscope $end
$scope module pc_inst $end
$var wire 1 ! clk $end
$var wire 1 " rst $end
$var wire 32 Z" pc_in [31:0] $end
$var reg 3 [" ff [2:0] $end
$var reg 32 \" pc_out [31:0] $end
$upscope $end
$scope module pc_mux_inst $end
$var wire 32 ]" alu_output [31:0] $end
$var wire 32 ^" branch_output [31:0] $end
$var wire 32 _" pc_plus_4 [31:0] $end
$var wire 2 `" pcsrc [1:0] $end
$var reg 32 a" pc_next [31:0] $end
$upscope $end
$upscope $end
$scope module reg_ex_mem_inst $end
$var wire 1 ! clk $end
$var wire 32 b" ex_alu_output [31:0] $end
$var wire 1 K ex_regwrite $end
$var wire 32 c" ex_rdata2 [31:0] $end
$var wire 5 d" ex_rd [4:0] $end
$var wire 32 e" ex_pc_plus_4 [31:0] $end
$var wire 1 Q ex_memwrite $end
$var wire 2 f" ex_memtoreg [1:0] $end
$var wire 32 g" ex_imm [31:0] $end
$var reg 32 h" mem_alu_output [31:0] $end
$var reg 32 i" mem_imm [31:0] $end
$var reg 2 j" mem_memtoreg [1:0] $end
$var reg 1 3 mem_memwrite $end
$var reg 32 k" mem_pc_plus_4 [31:0] $end
$var reg 5 l" mem_rd [4:0] $end
$var reg 32 m" mem_rdata2 [31:0] $end
$var reg 1 / mem_regwrite $end
$upscope $end
$scope module reg_id_ex_inst $end
$var wire 1 ! clk $end
$var wire 1 D id_a_sel $end
$var wire 2 n" id_alu_op [1:0] $end
$var wire 1 B id_b_sel $end
$var wire 2 o" id_branch_flag [1:0] $end
$var wire 3 p" id_funct3 [2:0] $end
$var wire 7 q" id_funct7 [6:0] $end
$var wire 32 r" id_imm [31:0] $end
$var wire 2 s" id_memtoreg [1:0] $end
$var wire 1 > id_memwrite $end
$var wire 5 t" id_rd [4:0] $end
$var wire 32 u" id_rdata1 [31:0] $end
$var wire 32 v" id_rdata2 [31:0] $end
$var wire 1 : id_regwrite $end
$var wire 32 w" id_pc_plus_4 [31:0] $end
$var wire 32 x" id_pc [31:0] $end
$var reg 1 Y ex_a_sel $end
$var reg 2 y" ex_alu_op [1:0] $end
$var reg 1 W ex_b_sel $end
$var reg 2 z" ex_branch_flag [1:0] $end
$var reg 3 {" ex_funct3 [2:0] $end
$var reg 7 |" ex_funct7 [6:0] $end
$var reg 32 }" ex_imm [31:0] $end
$var reg 2 ~" ex_memtoreg [1:0] $end
$var reg 1 Q ex_memwrite $end
$var reg 32 !# ex_pc [31:0] $end
$var reg 32 "# ex_pc_plus_4 [31:0] $end
$var reg 5 ## ex_rd [4:0] $end
$var reg 32 $# ex_rdata1 [31:0] $end
$var reg 32 %# ex_rdata2 [31:0] $end
$var reg 1 K ex_regwrite $end
$upscope $end
$scope module reg_if_id_inst $end
$var wire 1 ! clk $end
$var wire 32 &# if_instr [31:0] $end
$var wire 32 '# if_pc [31:0] $end
$var wire 32 (# if_pc_plus_4 [31:0] $end
$var wire 1 " rst $end
$var reg 32 )# id_instr [31:0] $end
$var reg 32 *# id_pc [31:0] $end
$var reg 32 +# id_pc_plus_4 [31:0] $end
$upscope $end
$scope module reg_mem_wb_inst $end
$var wire 1 ! clk $end
$var wire 32 ,# mem_alu_output [31:0] $end
$var wire 32 -# mem_imm [31:0] $end
$var wire 2 .# mem_memtoreg [1:0] $end
$var wire 32 /# mem_pc_plus_4 [31:0] $end
$var wire 5 0# mem_rd [4:0] $end
$var wire 1 / mem_regwrite $end
$var wire 32 1# mem_mem_output [31:0] $end
$var reg 32 2# wb_alu_output [31:0] $end
$var reg 32 3# wb_imm [31:0] $end
$var reg 32 4# wb_mem_output [31:0] $end
$var reg 2 5# wb_memtoreg [1:0] $end
$var reg 32 6# wb_pc_plus_4 [31:0] $end
$var reg 5 7# wb_rd [4:0] $end
$var reg 1 & wb_regwrite $end
$upscope $end
$scope module stage_mem_inst $end
$var wire 32 8# alu_output [31:0] $end
$var wire 1 ! clk $end
$var wire 1 3 memwrite $end
$var wire 32 9# rdata2 [31:0] $end
$var wire 32 :# wb_data [31:0] $end
$scope module mem_inst $end
$var wire 32 ;# addr [31:0] $end
$var wire 1 ! clk $end
$var wire 32 <# data [31:0] $end
$var wire 1 3 memwrite $end
$var wire 32 =# wd2 [31:0] $end
$var wire 12 ># DMEM_index [11:0] $end
$upscope $end
$upscope $end
$scope module wb_inst $end
$var wire 32 ?# alu_output [31:0] $end
$var wire 32 @# imm [31:0] $end
$var wire 32 A# mem_data [31:0] $end
$var wire 2 B# memtoreg [1:0] $end
$var wire 32 C# pc_plus_4 [31:0] $end
$var reg 32 D# wd [31:0] $end
$upscope $end
$upscope $end
$upscope $end
$enddefinitions $end
$comment Show the parameter values. $end
$dumpall
b101 $"
b10 #"
b111 ""
b1000 !"
b1010 ~
b1001 }
b110 |
b100 {
b11 z
b1 y
$end
#0
$dumpvars
bx D#
bx C#
bx B#
bx A#
bx @#
bx ?#
bx >#
bx =#
bx <#
bx ;#
bx :#
bx 9#
bx 8#
bx 7#
bx 6#
bx 5#
bx 4#
bx 3#
bx 2#
bx 1#
bx 0#
bx /#
bx .#
bx -#
bx ,#
bx +#
bx *#
bx )#
bx (#
bx '#
bx &#
bx %#
bx $#
bx ##
bx "#
bx !#
bx ~"
bx }"
bx |"
bx {"
bx z"
bx y"
bx x"
bx w"
bx v"
bx u"
bx t"
bx s"
b0 r"
bx q"
bx p"
bx o"
bx n"
bx m"
bx l"
bx k"
bx j"
bx i"
bx h"
bx g"
bx f"
bx e"
bx d"
bx c"
bx b"
bx a"
bx `"
bx _"
bx ^"
bx ]"
bx \"
bx ["
bx Z"
bx Y"
bx X"
b100 W"
bx V"
bx U"
bx T"
bx S"
bx R"
bx Q"
bx P"
bx O"
bx N"
bx M"
bx L"
bx K"
bx J"
bx I"
bx H"
b0 G"
bx0 F"
bx E"
bx0 D"
bx C"
bx000000000000 B"
bx A"
bx @"
bx ?"
bx >"
bx ="
bx <"
bx ;"
bx :"
b0xxx 9"
b0 8"
bx 7"
bx 6"
bx 5"
bx 4"
bx 3"
bx 2"
bx 1"
bx 0"
bx /"
bx ."
bx -"
bx ,"
bx +"
bx *"
bx )"
bx ("
bx '"
bx &"
bx %"
bx x
bx w
bx v
bx u
xt
bx s
bx r
bx q
bx p
bx o
bx n
bx m
bx l
bx k
xj
xi
xh
bx g
bx f
bx e
bx d
bx c
bx b
bx a
bx `
bx _
bx ^
bx ]
bx \
bx [
bx Z
xY
bx X
xW
bx V
bx U
bx T
bx S
bx R
xQ
bx P
bx O
bx N
bx M
bx L
xK
bx J
bx I
bx H
bx G
bx F
bx E
xD
bx C
xB
bx A
b0 @
bx ?
x>
bx =
bx <
bx ;
x:
bx 9
bx 8
bx 7
bx 6
bx 5
bx 4
x3
bx 2
bx 1
bx 0
x/
bx .
bx -
bx ,
bx +
bx *
bx )
bx (
bx '
x&
bx %
bx $
bx #
0"
0!
$end
#1000
b0 ["
b0 S
b0 _
b0 '"
b0 +"
b0 g"
b0 }"
1!
#2000
0!
1"
#3000
b100 Q"
b100 Z"
b100 a"
b0 5
b0 i"
b0 -#
b100 7
b100 R"
b100 X"
b100 _"
b100 (#
b11111101000000010000000100010011 9
b11111101000000010000000100010011 T"
b11111101000000010000000100010011 U"
b11111101000000010000000100010011 &#
b0 8
b0 S"
b0 V"
b0 Y"
b0 \"
b0 '#
1!
#4000
0!
0"
#5000
b11111111111111111111111111010000 @
b11111111111111111111111111010000 8"
b11111111111111111111111111010000 G"
b11111111111111111111111111010000 r"
b100000000000000 <
b100000000000000 4"
b100000000000000 L"
b100000000000000 u"
b11111111111111111111111111010000 E"
b11111111111111111111111111000010 C"
b11111111111111111111011111000010 F"
b11111111111100010000011111010000 D"
b11111101000000010000000000000000 B"
b0 1"
b0 ="
b0 @"
b0 ?
b0 7"
b0 >"
b0 s"
0>
1:
b0 A
b0 6"
b0 ?"
b0 o"
b11 C
b11 :"
b11 <"
b11 n"
1B
0D
b10 =
b10 5"
b10 t"
b0 9"
b10000 I"
b10 H"
b1111110100000001000000010 A"
b10011 ;"
b1111110 q"
b0 p"
b1 ["
b100 E
b100 w"
b100 +#
b0 F
b0 x"
b0 *#
b11111101000000010000000100010011 G
b11111101000000010000000100010011 2"
b11111101000000010000000100010011 )#
b0 +
b0 3#
b0 @#
1!
#6000
0!
#7000
0i
0t
b10000 w
0j
b11111111010000 $
b11111111010000 O"
b11111111010000 ]"
b11111111010000 J
b11111111010000 d
b11111111010000 %"
b11111111010000 b"
b0 %
b0 P"
b0 `"
b0 H
b0 \
b0 ."
b1 c
b1 q
b1 s
1h
b11111111111111111111111111010000 v
b11111111111111111111111111010000 f
b11111111111111111111111111010000 x
b11111111111111111111111111010000 &"
b100000000000000 u
b100000000000000 g
b100000000000000 k
b100000000000000 r
b1111110 T
b1111110 `
b1111110 n
b1111110 |"
b0 U
b0 a
b0 o
b0 -"
b0 {"
b100 O
b100 e"
b100 "#
b11111111111111111111111111010000 #
b11111111111111111111111111010000 N"
b11111111111111111111111111010000 ^"
b11111111111111111111111111010000 I
b11111111111111111111111111010000 b
b11111111111111111111111111010000 )"
b0 P
b0 ^
b0 l
b0 *"
b0 !#
b0 R
b0 f"
b0 ~"
0Q
1K
b0 V
b0 ]
b0 ,"
b0 z"
b11 X
b11 e
b11 p
b11 y"
1W
0Y
b11111111111111111111111111010000 S
b11111111111111111111111111010000 _
b11111111111111111111111111010000 '"
b11111111111111111111111111010000 +"
b11111111111111111111111111010000 g"
b11111111111111111111111111010000 }"
b10 N
b10 d"
b10 ##
b100000000000000 M
b100000000000000 [
b100000000000000 m
b100000000000000 $#
b10 ["
1!
#8000
0!
#9000
b111111110100 >#
b11 ["
b0 4
b0 j"
b0 .#
03
1/
b11111111111111111111111111010000 5
b11111111111111111111111111010000 i"
b11111111111111111111111111010000 -#
b100 2
b100 k"
b100 /#
b11111111010000 6
b11111111010000 h"
b11111111010000 ,#
b11111111010000 8#
b11111111010000 ;#
b10 1
b10 l"
b10 0#
1!
#10000
0!
#11000
b11111111010000 -
b11111111010000 /"
b11111111010000 J"
b11111111010000 D#
1&
b0 )
b0 5#
b0 B#
b10 '
b10 0"
b10 M"
b10 7#
b100 (
b100 6#
b100 C#
b11111111111111111111111111010000 +
b11111111111111111111111111010000 3#
b11111111111111111111111111010000 @#
b11111111010000 ,
b11111111010000 2#
b11111111010000 ?#
b100 ["
1!
#12000
0!
#13000
b1000 Q"
b1000 Z"
b1000 a"
b11111111010000 <
b11111111010000 4"
b11111111010000 L"
b11111111010000 u"
b1000 7
b1000 R"
b1000 X"
b1000 _"
b1000 (#
b10000100010010011000100011 9
b10000100010010011000100011 T"
b10000100010010011000100011 U"
b10000100010010011000100011 &#
b100 8
b100 S"
b100 V"
b100 Y"
b100 \"
b100 '#
b0 ["
1!
#14000
0!
#15000
b101100 @
b101100 8"
b101100 G"
b101100 r"
b11111110100000 $
b11111110100000 O"
b11111110100000 ]"
b11111110100000 J
b11111110100000 d
b11111110100000 %"
b11111110100000 b"
b100001 E"
b101100 C"
b101100 F"
b10010100000100000 D"
b10000100010010000000000000 B"
b1 1"
b1 ="
b1 @"
1>
0:
b0 C
b0 :"
b0 <"
b0 n"
1B
b11111111010000 u
b11111111010000 g
b11111111010000 k
b11111111010000 r
b1100 =
b1100 5"
b1100 t"
b10 9"
b1 I"
b1000010001001001100 A"
b100011 ;"
b1 q"
b10 p"
b11111111010000 M
b11111111010000 [
b11111111010000 m
b11111111010000 $#
b1000 E
b1000 w"
b1000 +#
b100 F
b100 x"
b100 *#
b10000100010010011000100011 G
b10000100010010011000100011 2"
b10000100010010011000100011 )#
b1 ["
1!
#16000
0!
#17000
b1100 w
b11111111111100 $
b11111111111100 O"
b11111111111100 ]"
b11111111111100 J
b11111111111100 d
b11111111111100 %"
b11111111111100 b"
0h
b101100 v
b101100 f
b101100 x
b101100 &"
b111111101000 >#
b10 ["
b1 T
b1 `
b1 n
b1 |"
b10 U
b10 a
b10 o
b10 -"
b10 {"
b1000 O
b1000 e"
b1000 "#
b100 P
b100 ^
b100 l
b100 *"
b100 !#
1Q
0K
b0 X
b0 e
b0 p
b0 y"
b110000 #
b110000 N"
b110000 ^"
b110000 I
b110000 b
b110000 )"
b101100 S
b101100 _
b101100 '"
b101100 +"
b101100 g"
b101100 }"
b1100 N
b1100 d"
b1100 ##
b11111110100000 6
b11111110100000 h"
b11111110100000 ,#
b11111110100000 8#
b11111110100000 ;#
1!
#18000
0!
#19000
b11111110100000 -
b11111110100000 /"
b11111110100000 J"
b11111110100000 D#
b111111111111 >#
b11111110100000 ,
b11111110100000 2#
b11111110100000 ?#
13
0/
b101100 5
b101100 i"
b101100 -#
b1000 2
b1000 k"
b1000 /#
b11111111111100 6
b11111111111100 h"
b11111111111100 ,#
b11111111111100 8#
b11111111111100 ;#
b1100 1
b1100 l"
b1100 0#
b11 ["
1!
#20000
0!
#21000
b11111110100000 <
b11111110100000 4"
b11111110100000 L"
b11111110100000 u"
b11111111111100 -
b11111111111100 /"
b11111111111100 J"
b11111111111100 D#
b100 ["
0&
b1100 '
b1100 0"
b1100 M"
b1100 7#
b1000 (
b1000 6#
b1000 C#
b101100 +
b101100 3#
b101100 @#
b11111111111100 ,
b11111111111100 2#
b11111111111100 ?#
1!
#22000
0!
#23000
b11111111001100 $
b11111111001100 O"
b11111111001100 ]"
b11111111001100 J
b11111111001100 d
b11111111001100 %"
b11111111001100 b"
b11111110100000 u
b11111110100000 g
b11111110100000 k
b11111110100000 r
b1100 Q"
b1100 Z"
b1100 a"
b11111110100000 M
b11111110100000 [
b11111110100000 m
b11111110100000 $#
b1100 7
b1100 R"
b1100 X"
b1100 _"
b1100 (#
b10100000010010010000100011 9
b10100000010010010000100011 T"
b10100000010010010000100011 U"
b10100000010010010000100011 &#
b1000 8
b1000 S"
b1000 V"
b1000 Y"
b1000 \"
b1000 '#
b0 ["
1!
#24000
0!
#25000
b101000 @
b101000 8"
b101000 G"
b101000 r"
b101000 E"
b101000 C"
b101000 F"
b10010000000101000 D"
b10100000010010000000000000 B"
b1000 =
b1000 5"
b1000 t"
b1000 I"
b1010000001001001000 A"
b111111110011 >#
b1 ["
b1100 E
b1100 w"
b1100 +#
b1000 F
b1000 x"
b1000 *#
b10100000010010010000100011 G
b10100000010010010000100011 2"
b10100000010010010000100011 )#
b11111111001100 6
b11111111001100 h"
b11111111001100 ,#
b11111111001100 8#
b11111111001100 ;#
1!
#26000
0!
#27000
b1000 w
b11111111001000 $
b11111111001000 O"
b11111111001000 ]"
b11111111001000 J
b11111111001000 d
b11111111001000 %"
b11111111001000 b"
b11111111001100 -
b11111111001100 /"
b11111111001100 J"
b11111111001100 D#
b101000 v
b101000 f
b101000 x
b101000 &"
b11111111001100 ,
b11111111001100 2#
b11111111001100 ?#
b1100 O
b1100 e"
b1100 "#
b1000 P
b1000 ^
b1000 l
b1000 *"
b1000 !#
b110000 #
b110000 N"
b110000 ^"
b110000 I
b110000 b
b110000 )"
b101000 S
b101000 _
b101000 '"
b101000 +"
b101000 g"
b101000 }"
b1000 N
b1000 d"
b1000 ##
b10 ["
1!
#28000
0!
#29000
b111111110010 >#
b11 ["
b101000 5
b101000 i"
b101000 -#
b1100 2
b1100 k"
b1100 /#
b11111111001000 6
b11111111001000 h"
b11111111001000 ,#
b11111111001000 8#
b11111111001000 ;#
b1000 1
b1000 l"
b1000 0#
1!
#30000
0!
#31000
b11111111001000 -
b11111111001000 /"
b11111111001000 J"
b11111111001000 D#
b1000 '
b1000 0"
b1000 M"
b1000 7#
b1100 (
b1100 6#
b1100 C#
b101000 +
b101000 3#
b101000 @#
b11111111001000 ,
b11111111001000 2#
b11111111001000 ?#
b100 ["
1!
#32000
0!
#33000
b10000 Q"
b10000 Z"
b10000 a"
b10000 7
b10000 R"
b10000 X"
b10000 _"
b10000 (#
b11000000010000010000010011 9
b11000000010000010000010011 T"
b11000000010000010000010011 U"
b11000000010000010000010011 &#
b1100 8
b1100 S"
b1100 V"
b1100 Y"
b1100 \"
b1100 '#
b0 ["
1!
#34000
0!
#35000
b110000 @
b110000 8"
b110000 G"
b110000 r"
b110000 E"
b10000000000110000 D"
b11000000010000000000000000 B"
1:
b11 C
b11 :"
b11 <"
b11 n"
b0 1"
b0 ="
b0 @"
0>
1B
b0 9"
b10000 I"
b1100000001000001000 A"
b10011 ;"
b0 p"
b10000 E
b10000 w"
b10000 +#
b1100 F
b1100 x"
b1100 *#
b11000000010000010000010011 G
b11000000010000010000010011 2"
b11000000010000010000010011 )#
b1 ["
1!
#36000
0!
#37000
b10000 w
b11111111010000 $
b11111111010000 O"
b11111111010000 ]"
b11111111010000 J
b11111111010000 d
b11111111010000 %"
b11111111010000 b"
b110000 v
b110000 f
b110000 x
b110000 &"
b10 ["
b0 U
b0 a
b0 o
b0 -"
b0 {"
b10000 O
b10000 e"
b10000 "#
b1100 P
b1100 ^
b1100 l
b1100 *"
b1100 !#
0Q
1K
b11 X
b11 e
b11 p
b11 y"
b111100 #
b111100 N"
b111100 ^"
b111100 I
b111100 b
b111100 )"
b110000 S
b110000 _
b110000 '"
b110000 +"
b110000 g"
b110000 }"
1!
#38000
0!
#39000
b111111110100 >#
03
1/
b110000 5
b110000 i"
b110000 -#
b10000 2
b10000 k"
b10000 /#
b11111111010000 6
b11111111010000 h"
b11111111010000 ,#
b11111111010000 8#
b11111111010000 ;#
b11 ["
1!
#40000
0!
#41000
b11111111010000 -
b11111111010000 /"
b11111111010000 J"
b11111111010000 D#
b100 ["
1&
b10000 (
b10000 6#
b10000 C#
b110000 +
b110000 3#
b110000 @#
b11111111010000 ,
b11111111010000 2#
b11111111010000 ?#
1!
#42000
0!
#43000
b10100 Q"
b10100 Z"
b10100 a"
b10100 7
b10100 R"
b10100 X"
b10100 _"
b10100 (#
b11000000000011110010011 9
b11000000000011110010011 T"
b11000000000011110010011 U"
b11000000000011110010011 &#
b10000 8
b10000 S"
b10000 V"
b10000 Y"
b10000 \"
b10000 '#
b0 ["
1!
#44000
0!
#45000
b110 @
b110 8"
b110 G"
b110 r"
b0 <
b0 4"
b0 L"
b0 u"
b110 E"
b1111 C"
b100000001110 F"
b110 D"
b11000000000000000000000 B"
b1111 =
b1111 5"
b1111 t"
b110 I"
b0 H"
b1100000000001111 A"
b0 q"
b1 ["
b10100 E
b10100 w"
b10100 +#
b10000 F
b10000 x"
b10000 *#
b11000000000011110010011 G
b11000000000011110010011 2"
b11000000000011110010011 )#
1!
#46000
0!
#47000
b110 w
b110 $
b110 O"
b110 ]"
b110 J
b110 d
b110 %"
b110 b"
b110 v
b110 f
b110 x
b110 &"
b0 u
1h
b0 g
b0 k
b0 r
b0 T
b0 `
b0 n
b0 |"
b10100 O
b10100 e"
b10100 "#
b10000 P
b10000 ^
b10000 l
b10000 *"
b10000 !#
b10110 #
b10110 N"
b10110 ^"
b10110 I
b10110 b
b10110 )"
b110 S
b110 _
b110 '"
b110 +"
b110 g"
b110 }"
b1111 N
b1111 d"
b1111 ##
b0 M
b0 [
b0 m
b0 $#
b10 ["
1!
#48000
0!
#49000
b1 >#
b11 ["
b110 5
b110 i"
b110 -#
b10100 2
b10100 k"
b10100 /#
b110 6
b110 h"
b110 ,#
b110 8#
b110 ;#
b1111 1
b1111 l"
b1111 0#
1!
#50000
0!
#51000
b110 -
b110 /"
b110 J"
b110 D#
b1111 '
b1111 0"
b1111 M"
b1111 7#
b10100 (
b10100 6#
b10100 C#
b110 +
b110 3#
b110 @#
b110 ,
b110 2#
b110 ?#
b100 ["
1!
#52000
0!
#53000
b11000 Q"
b11000 Z"
b11000 a"
b11000 7
b11000 R"
b11000 X"
b11000 _"
b11000 (#
b11111110111101000010011000100011 9
b11111110111101000010011000100011 T"
b11111110111101000010011000100011 U"
b11111110111101000010011000100011 &#
b10100 8
b10100 S"
b10100 V"
b10100 Y"
b10100 \"
b10100 '#
b0 ["
1!
#54000
0!
#55000
b11111111111111111111111111101100 @
b11111111111111111111111111101100 8"
b11111111111111111111111111101100 G"
b11111111111111111111111111101100 r"
b110 ;
b110 3"
b110 K"
b110 v"
b11111111010000 <
b11111111010000 4"
b11111111010000 L"
b11111111010000 u"
b11111111111111111111111111101111 E"
b11111111111111111111111111101100 C"
b11111111111111111111011111101100 F"
b11111111111101000010111111101110 D"
b11111110111101000010000000000000 B"
b1 1"
b1 ="
b1 @"
1>
0:
b0 C
b0 :"
b0 <"
b0 n"
1B
b1100 =
b1100 5"
b1100 t"
b10 9"
b1111 I"
b1000 H"
b1111111011110100001001100 A"
b100011 ;"
b1111111 q"
b10 p"
b11000 E
b11000 w"
b11000 +#
b10100 F
b10100 x"
b10100 *#
b11111110111101000010011000100011 G
b11111110111101000010011000100011 2"
b11111110111101000010011000100011 )#
b1 ["
1!
#56000
0!
#57000
b1100 w
b11111110111100 $
b11111110111100 O"
b11111110111100 ]"
b11111110111100 J
b11111110111100 d
b11111110111100 %"
b11111110111100 b"
b11111111111111111111111111101100 v
b11111111111111111111111111101100 f
b11111111111111111111111111101100 x
b11111111111111111111111111101100 &"
b11111111010000 u
1h
b11111111010000 g
b11111111010000 k
b11111111010000 r
b10 ["
b1111111 T
b1111111 `
b1111111 n
b1111111 |"
b10 U
b10 a
b10 o
b10 -"
b10 {"
b11000 O
b11000 e"
b11000 "#
b10100 P
b10100 ^
b10100 l
b10100 *"
b10100 !#
1Q
0K
b0 X
b0 e
b0 p
b0 y"
b0 #
b0 N"
b0 ^"
b0 I
b0 b
b0 )"
b11111111111111111111111111101100 S
b11111111111111111111111111101100 _
b11111111111111111111111111101100 '"
b11111111111111111111111111101100 +"
b11111111111111111111111111101100 g"
b11111111111111111111111111101100 }"
b1100 N
b1100 d"
b1100 ##
b110 L
b110 Z
b110 ("
b110 c"
b110 %#
b11111111010000 M
b11111111010000 [
b11111111010000 m
b11111111010000 $#
1!
#58000
0!
